<?xml version="1.0" encoding="UTF-8" standalone="no"?>
<!-- Created with Inkscape (http://www.inkscape.org/) -->

<svg
   xmlns:dc="http://purl.org/dc/elements/1.1/"
   xmlns:cc="http://creativecommons.org/ns#"
   xmlns:rdf="http://www.w3.org/1999/02/22-rdf-syntax-ns#"
   xmlns:svg="http://www.w3.org/2000/svg"
   xmlns="http://www.w3.org/2000/svg"
   xmlns:sodipodi="http://sodipodi.sourceforge.net/DTD/sodipodi-0.dtd"
   xmlns:inkscape="http://www.inkscape.org/namespaces/inkscape"
   width="7773.7505"
   height="750.00067"
   id="svg4891"
   version="1.1"
   inkscape:version="0.48.4 r9939"
   sodipodi:docname="New document 8">
  <defs
     id="defs4893" />
  <sodipodi:namedview
     id="base"
     pagecolor="#ffffff"
     bordercolor="#666666"
     borderopacity="1.0"
     inkscape:pageopacity="0.0"
     inkscape:pageshadow="2"
     inkscape:zoom="0.35"
     inkscape:cx="4081.8753"
     inkscape:cy="297.85747"
     inkscape:document-units="px"
     inkscape:current-layer="layer1"
     showgrid="false"
     fit-margin-top="0"
     fit-margin-left="0"
     fit-margin-right="0"
     fit-margin-bottom="0"
     inkscape:window-width="1366"
     inkscape:window-height="689"
     inkscape:window-x="-9"
     inkscape:window-y="-9"
     inkscape:window-maximized="1" />
  <metadata
     id="metadata4896">
    <rdf:RDF>
      <cc:Work
         rdf:about="">
        <dc:format>image/svg+xml</dc:format>
        <dc:type
           rdf:resource="http://purl.org/dc/dcmitype/StillImage" />
        <dc:title></dc:title>
      </cc:Work>
    </rdf:RDF>
  </metadata>
  <g
     inkscape:label="Layer 1"
     inkscape:groupmode="layer"
     id="layer1"
     transform="translate(3706.8753,-80.219)">
    <path
       inkscape:connector-curvature="0"
       d="m 3522.169,80.219 169.7063,0 375,375 -375,375 -169.7063,0 375,-375 -375,-375 z"
       style="fill:#211f20;fill-opacity:1;fill-rule:nonzero;stroke:none"
       id="path14" />
    <path
       inkscape:connector-curvature="0"
       d="m 2626.8748,80.219 129.8874,0 155.1126,374.47625 155.1125,-374.47625 129.8875,0 -225,543.1975 0,206.8025 -120,0 0,-206.8025 -225,-543.1975 z"
       style="fill:#211f20;fill-opacity:1;fill-rule:nonzero;stroke:none"
       id="path18" />
    <path
       inkscape:connector-curvature="0"
       d="m 2034.3748,395.219 0,-195 205.2937,0 49.7063,49.70625 0,95.5875 -49.7063,49.70625 -205.2937,0 z m 255,120 120,-120 0,-195 -120,-120 -375,0 0,750 120,0 0,-315 125.1125,0 130.4775,315 129.8875,0 -130.4775,-315 z"
       style="fill:#211f20;fill-opacity:1;fill-rule:nonzero;stroke:none"
       id="path22" />
    <path
       inkscape:connector-curvature="0"
       d="m 1479.3748,80.219 -435,0 0,750 435,0 0,-120 -315,0 0,-195 315,0 0,-120 -315,0 0,-195 315,0 0,-120 z"
       style="fill:#211f20;fill-opacity:1;fill-rule:nonzero;stroke:none"
       id="path26" />
    <path
       inkscape:connector-curvature="0"
       d="m 114.37475,80.219 120,0 255,490.04 0,-490.04 120,0 0,750 -120,0 -255,-490.03875 0,490.03875 -120,0 0,-750 z"
       style="fill:#211f20;fill-opacity:1;fill-rule:nonzero;stroke:none"
       id="path30" />
    <path
       inkscape:connector-curvature="0"
       d="m -440.62525,80.219 120,0 0,750 -120,0 0,-750 z"
       style="fill:#211f20;fill-opacity:1;fill-rule:nonzero;stroke:none"
       id="path32" />
    <path
       inkscape:connector-curvature="0"
       d="m -995.62525,660.5134 -49.70505,49.70625 -230.5886,0 -49.7063,-49.70625 0,-410.58875 49.7063,-49.705 230.5886,0 49.70505,49.705 0,410.58875 z m 0,-580.29375 -330.00005,0 -120,120 0,510 120,120 330.00005,0 120,-120 0,-510 -120,-120 z"
       style="fill:#211f20;fill-opacity:1;fill-rule:nonzero;stroke:none"
       id="path36" />
    <path
       inkscape:connector-curvature="0"
       d="m -2195.6253,830.219 49.7063,-120 95.5876,0 49.7062,-49.70625 0,-580.29375 120,0 0,630 -120,120 -195.0001,0 z"
       style="fill:#211f20;fill-opacity:1;fill-rule:nonzero;stroke:none"
       id="path40" />
    <path
       inkscape:connector-curvature="0"
       d="m -2534.6138,80.219 129.8876,0 -310.6601,750 -129.8875,0 310.66,-750 z"
       style="fill:#211f20;fill-opacity:1;fill-rule:nonzero;stroke:none"
       id="path44" />
    <path
       inkscape:connector-curvature="0"
       d="m -3331.8753,80.219 169.7063,0 -375,375 375,375 -169.7063,0 -375,-375 375,-375 z"
       style="fill:#211f20;fill-opacity:1;fill-rule:nonzero;stroke:none"
       id="path48" />
  </g>
</svg>
